{"name":"getUseres","id":"SerenityInitialTest:getUseres","testCaseName":"SerenityInitialTest","testSteps":[{"number":1,"description":"Gustavo get all users","duration":311,"startTime":"2023-07-30T16:37:58.319805900-05:00[America/Bogota]","result":"SUCCESS","precondition":false,"level":0,"children":[{"number":2,"description":"Gustavo executes a GET on the resource /api/users?page\u003d1","duration":295,"startTime":"2023-07-30T16:37:58.319805900-05:00[America/Bogota]","result":"SUCCESS","precondition":false,"level":1,"children":[{"number":3,"description":"GET https://reqres.in/api/users?page\u003d1\r","duration":0,"startTime":"2023-07-30T16:37:58.599184700-05:00[America/Bogota]","result":"SUCCESS","restQuery":{"method":"GET","path":"https://reqres.in/api/users?page\u003d1\r","content":"\r","contentType":"application/json","requestHeaders":"header1\u003dvalue1\r\n\t\t\t\tAccept\u003d*/*\r\n\t\t\t\tContent-Type\u003dapplication/json; charset\u003dUTF-8\r","requestCookies":"\r","responseHeaders":"Date: Sun, 30 Jul 2023 21:37:27 GMT\r\nContent-Type: application/json; charset\u003dutf-8\r\nTransfer-Encoding: chunked\r\nConnection: keep-alive\r\nX-Powered-By: Express\r\nAccess-Control-Allow-Origin: *\r\nEtag: W/\"3e4-2RLXvr5wTg9YQ6aH95CkYoFNuO8\"\r\nVia: 1.1 vegur\r\nCache-Control: max-age\u003d14400\r\nCF-Cache-Status: HIT\r\nAge: 4900\r\nReport-To: {\"endpoints\":[{\"url\":\"https:\\/\\/a.nel.cloudflare.com\\/report\\/v3?s\u003dmc5fjYsJom4BUuhUw0F7gwXWNSeFKSAOfIFOoJ3q5oRe94gYu2GtpKMFYM2u7Nnea2bW3jMEFSaaTEUFa0ZK%2BLXB%2F%2BBqF%2Bftx%2FfxgPSnPryqsd%2BWcp13o1%2FfhA%3D%3D\"}],\"group\":\"cf-nel\",\"max_age\":604800}\r\nNEL: {\"success_fraction\":0,\"report_to\":\"cf-nel\",\"max_age\":604800}\r\nVary: Accept-Encoding\r\nServer: cloudflare\r\nCF-RAY: 7ef0be351d2edaf5-MIA\r\nContent-Encoding: gzip\r","responseCookies":"\r","responseBody":"{\n    \"page\": 1,\n    \"per_page\": 6,\n    \"total\": 12,\n    \"total_pages\": 2,\n    \"data\": [\n        {\n            \"id\": 1,\n            \"email\": \"george.bluth@reqres.in\",\n            \"first_name\": \"George\",\n            \"last_name\": \"Bluth\",\n            \"avatar\": \"https://reqres.in/img/faces/1-image.jpg\"\n        },\n        {\n            \"id\": 2,\n            \"email\": \"janet.weaver@reqres.in\",\n            \"first_name\": \"Janet\",\n            \"last_name\": \"Weaver\",\n            \"avatar\": \"https://reqres.in/img/faces/2-image.jpg\"\n        },\n        {\n            \"id\": 3,\n            \"email\": \"emma.wong@reqres.in\",\n            \"first_name\": \"Emma\",\n            \"last_name\": \"Wong\",\n            \"avatar\": \"https://reqres.in/img/faces/3-image.jpg\"\n        },\n        {\n            \"id\": 4,\n            \"email\": \"eve.holt@reqres.in\",\n            \"first_name\": \"Eve\",\n            \"last_name\": \"Holt\",\n            \"avatar\": \"https://reqres.in/img/faces/4-image.jpg\"\n        },\n        {\n            \"id\": 5,\n            \"email\": \"charles.morris@reqres.in\",\n            \"first_name\": \"Charles\",\n            \"last_name\": \"Morris\",\n            \"avatar\": \"https://reqres.in/img/faces/5-image.jpg\"\n        },\n        {\n            \"id\": 6,\n            \"email\": \"tracey.ramos@reqres.in\",\n            \"first_name\": \"Tracey\",\n            \"last_name\": \"Ramos\",\n            \"avatar\": \"https://reqres.in/img/faces/6-image.jpg\"\n        }\n    ],\n    \"support\": {\n        \"url\": \"https://reqres.in/#support-heading\",\n        \"text\": \"To keep ReqRes free, contributions towards server costs are appreciated!\"\n    }\n}","statusCode":200},"precondition":false,"level":2}]}]},{"number":4,"description":"Then Respose Code should be (200)","duration":0,"startTime":"2023-07-30T16:37:58.630852600-05:00[America/Bogota]","result":"SUCCESS","precondition":false,"level":0},{"number":5,"description":"Then Get user actual should be not null","duration":16,"startTime":"2023-07-30T16:37:58.699017900-05:00[America/Bogota]","result":"SUCCESS","precondition":false,"level":0},{"number":6,"description":"Then Email user should be \u0027george.bluth@reqres.in\u0027","duration":15,"startTime":"2023-07-30T16:37:58.715641400-05:00[America/Bogota]","result":"SUCCESS","precondition":false,"level":0},{"number":7,"description":"Then Email user should be \u0027https://reqres.in/img/faces/1-image.jpg\u0027","duration":0,"startTime":"2023-07-30T16:37:58.731272500-05:00[America/Bogota]","result":"SUCCESS","precondition":false,"level":0}],"userStory":{"id":"SerenityInitialTest","storyName":"Serenity initial test","displayName":"Serenity initial test","storyClassName":"SerenityInitialTest","path":"","type":"story"},"featureTag":{"name":"Serenity initial test","type":"story","displayName":"Serenity initial test"},"title":"Get useres","tags":[{"name":"Serenity initial test","type":"story","displayName":"Serenity initial test"}],"startTime":"2023-07-30T16:37:58.299741-05:00[America/Bogota]","duration":447,"projectKey":"","driver":"","isManualTestingUpToDate":false,"manual":false,"testSource":"JUnit","actors":[{"name":"Gustavo","can":["call an API at https://reqres.in"]}],"order":0,"result":"SUCCESS"}